<?xml version="1.0" encoding="utf-8"?>
<!-- Generator: Adobe Illustrator 24.1.2, SVG Export Plug-In . SVG Version: 6.00 Build 0)  -->
<svg version="1.1" id="Layer_1" xmlns="http://www.w3.org/2000/svg" xmlns:xlink="http://www.w3.org/1999/xlink" x="0px" y="0px"
	 viewBox="0 0 1575 272" style="enable-background:new 0 0 1575 272;" xml:space="preserve">
<style type="text/css">
	.st0{opacity:0.4887;}
	.st1{filter:url(#filter-4);}
	.st2{fill-rule:evenodd;clip-rule:evenodd;}
	.st3{fill-rule:evenodd;clip-rule:evenodd;fill:url(#path-3_2_);}
	.st4{opacity:0.1822;fill-rule:evenodd;clip-rule:evenodd;fill:url(#Oval-Copy-6_1_);enable-background:new    ;}
	.st5{fill-rule:evenodd;clip-rule:evenodd;fill:url(#Oval-Copy-8_1_);}
	.st6{filter:url(#filter-9);}
	.st7{fill-rule:evenodd;clip-rule:evenodd;fill:url(#path-8_2_);}
	.st8{filter:url(#filter-12);}
	.st9{fill-rule:evenodd;clip-rule:evenodd;fill:url(#path-11_2_);}
	.st10{filter:url(#filter-15);}
	.st11{fill-rule:evenodd;clip-rule:evenodd;fill:url(#path-14_2_);}
	.st12{opacity:0.3078;fill-rule:evenodd;clip-rule:evenodd;fill:url(#Oval-Copy-7_1_);enable-background:new    ;}
	.st13{opacity:0.3078;fill-rule:evenodd;clip-rule:evenodd;fill:url(#Oval-Copy-9_1_);enable-background:new    ;}
	.st14{fill-rule:evenodd;clip-rule:evenodd;fill:url(#SVGID_1_);fill-opacity:0.5;}
</style>
<filter  filterUnits="objectBoundingBox" height="1967.9%" id="filter-9" width="1963.6%" x="-931.8%" y="-569.5%">
	<feOffset  dx="0" dy="40" in="SourceAlpha" result="shadowOffsetOuter1"></feOffset>
	<feGaussianBlur  in="shadowOffsetOuter1" result="shadowBlurOuter1" stdDeviation="27.5"></feGaussianBlur>
	<feColorMatrix  in="shadowBlurOuter1" type="matrix" values="0 0 0 0 0   0 0 0 0 0   0 0 0 0 0  0 0 0 0.133973053 0">
		</feColorMatrix>
</filter>
<filter  filterUnits="objectBoundingBox" height="920.0%" id="filter-4" width="920.0%" x="-410.0%" y="-250.0%">
	<feOffset  dx="0" dy="40" in="SourceAlpha" result="shadowOffsetOuter1"></feOffset>
	<feGaussianBlur  in="shadowOffsetOuter1" result="shadowBlurOuter1" stdDeviation="27.5"></feGaussianBlur>
	
		<feColorMatrix  in="shadowBlurOuter1" type="matrix" values="0 0 0 0 0.259009969   0 0 0 0 0.0313297583   0 0 0 0 0.634086277  0 0 0 0.214925699 0">
		</feColorMatrix>
</filter>
<filter  filterUnits="objectBoundingBox" height="3524.6%" id="filter-15" width="3516.7%" x="-1708.3%" y="-1044.1%">
	<feOffset  dx="0" dy="40" in="SourceAlpha" result="shadowOffsetOuter1"></feOffset>
	<feGaussianBlur  in="shadowOffsetOuter1" result="shadowBlurOuter1" stdDeviation="27.5"></feGaussianBlur>
	<feColorMatrix  in="shadowBlurOuter1" type="matrix" values="0 0 0 0 0   0 0 0 0 0   0 0 0 0 0  0 0 0 0.133973053 0">
		</feColorMatrix>
</filter>
<filter  filterUnits="objectBoundingBox" height="3524.6%" id="filter-12" width="3516.7%" x="-1708.3%" y="-1044.1%">
	<feOffset  dx="0" dy="40" in="SourceAlpha" result="shadowOffsetOuter1"></feOffset>
	<feGaussianBlur  in="shadowOffsetOuter1" result="shadowBlurOuter1" stdDeviation="27.5"></feGaussianBlur>
	<feColorMatrix  in="shadowBlurOuter1" type="matrix" values="0 0 0 0 0   0 0 0 0 0   0 0 0 0 0  0 0 0 0.133973053 0">
		</feColorMatrix>
</filter>
<desc>Created with Sketch.</desc>
<g id="Page-1">
	<g id="Product-Blog-Page-of-weDevs" transform="translate(-257.000000, 0.000000)">
		<g id="BG-Illusytration-Copy" transform="translate(257.000000, -161.000000)">
			<g id="Oval-Copy-5" class="st0">
				<g class="st1">
					<circle id="path-3_2_" class="st2" cx="328.5" cy="276.9" r="12.5"/>
				</g>
				<g>
					
						<linearGradient id="path-3_2_" gradientUnits="userSpaceOnUse" x1="749.3" y1="309.12" x2="749.3" y2="310.12" gradientTransform="matrix(25 0 0 -25 -18404 8017.3896)">
						<stop  offset="0" style="stop-color:#A75BFF"/>
						<stop  offset="1" style="stop-color:#E2CBFF"/>
					</linearGradient>
					<circle id="path-3_1_" class="st3" cx="328.5" cy="276.9" r="12.5"/>
				</g>
			</g>
			
				<linearGradient id="Oval-Copy-6_1_" gradientUnits="userSpaceOnUse" x1="777.9083" y1="305.1349" x2="776.9257" y2="304.9174" gradientTransform="matrix(249 0 0 -248.4263 -192626 75898.0156)">
				<stop  offset="0" style="stop-color:#D7CBFF;stop-opacity:0"/>
				<stop  offset="1" style="stop-color:#5F58FF"/>
			</linearGradient>
			<ellipse id="Oval-Copy-6" class="st4" cx="938.5" cy="124.2" rx="124.5" ry="124.2"/>
			
				<linearGradient id="Oval-Copy-8_1_" gradientUnits="userSpaceOnUse" x1="720.8787" y1="314.6784" x2="720.1181" y2="314.011" gradientTransform="matrix(13 0 0 -13 -8299 4369.332)">
				<stop  offset="0" style="stop-color:#D7CBFF"/>
				<stop  offset="1" style="stop-color:#5F58FF"/>
			</linearGradient>
			<circle id="Oval-Copy-8" class="st5" cx="1067.5" cy="282.8" r="6.5"/>
			<g id="Oval-Copy-10">
				<g class="st6">
					<ellipse id="path-8_2_" class="st2" cx="155.5" cy="304.8" rx="5.5" ry="5.5"/>
				</g>
				<g>
					
						<linearGradient id="path-8_2_" gradientUnits="userSpaceOnUse" x1="709.7216" y1="315.8051" x2="709.4252" y2="316.6173" gradientTransform="matrix(11 0 0 -10.9747 -7650 3774.5784)">
						<stop  offset="0" style="stop-color:#0354D0"/>
						<stop  offset="0.7156" style="stop-color:#3099FF"/>
						<stop  offset="1" style="stop-color:#74B9FF"/>
					</linearGradient>
					<ellipse id="path-8_1_" class="st7" cx="155.5" cy="304.8" rx="5.5" ry="5.5"/>
				</g>
			</g>
			<g id="Oval-Copy-12">
				<g class="st8">
					<ellipse id="path-11_2_" class="st2" cx="758" cy="248.4" rx="3" ry="3"/>
				</g>
				<g>
					
						<linearGradient id="path-11_2_" gradientUnits="userSpaceOnUse" x1="650" y1="326.3803" x2="651" y2="325.3849" gradientTransform="matrix(6 0 0 -5.9862 -3145 2199.2166)">
						<stop  offset="0" style="stop-color:#ABDCFF"/>
						<stop  offset="1" style="stop-color:#0396FF"/>
					</linearGradient>
					<ellipse id="path-11_1_" class="st9" cx="758" cy="248.4" rx="3" ry="3"/>
				</g>
			</g>
			<g id="Oval-Copy-13">
				<g class="st10">
					<ellipse id="path-14_2_" class="st2" cx="498" cy="303.3" rx="3" ry="3"/>
				</g>
				<g>
					
						<linearGradient id="path-14_2_" gradientUnits="userSpaceOnUse" x1="650" y1="326.3803" x2="651" y2="325.3849" gradientTransform="matrix(6 0 0 -5.9862 -3405 2254.0898)">
						<stop  offset="0" style="stop-color:#F6D242"/>
						<stop  offset="1" style="stop-color:#FF52E5"/>
					</linearGradient>
					<ellipse id="path-14_1_" class="st11" cx="498" cy="303.3" rx="3" ry="3"/>
				</g>
			</g>
			
				<linearGradient id="Oval-Copy-7_1_" gradientUnits="userSpaceOnUse" x1="763.7413" y1="307.0312" x2="764.7413" y2="307.3096" gradientTransform="matrix(48 0 0 -47.8894 -35389 14962.7393)">
				<stop  offset="0" style="stop-color:#C2E998;stop-opacity:0"/>
				<stop  offset="1" style="stop-color:#02CC87"/>
			</linearGradient>
			<ellipse id="Oval-Copy-7" class="st12" cx="1295" cy="252.4" rx="24" ry="23.9"/>
			
				<linearGradient id="Oval-Copy-9_1_" gradientUnits="userSpaceOnUse" x1="769.9708" y1="306.0129" x2="770.9708" y2="306.2621" gradientTransform="matrix(78 0 0 -77.8203 -60060 24074.6953)">
				<stop  offset="0" style="stop-color:#91D1E8;stop-opacity:0"/>
				<stop  offset="1" style="stop-color:#49CDFF"/>
			</linearGradient>
			<ellipse id="Oval-Copy-9" class="st13" cx="39" cy="250.4" rx="39" ry="38.9"/>
		</g>
	</g>
</g>
<linearGradient id="SVGID_1_" gradientUnits="userSpaceOnUse" x1="1477.2416" y1="163.4624" x2="1408.7491" y2="44.83">
	<stop  offset="0" style="stop-color:#D1E5FC"/>
	<stop  offset="1" style="stop-color:#FFFFFF;stop-opacity:0"/>
</linearGradient>
<circle class="st14" cx="1465.5" cy="143.2" r="109.5"/>
</svg>
